%YAML 1.1
%TAG !u! tag:unity3d.com,2011:
--- !u!114 &11400000
MonoBehaviour:
  m_ObjectHideFlags: 0
  m_CorrespondingSourceObject: {fileID: 0}
  m_PrefabInstance: {fileID: 0}
  m_PrefabAsset: {fileID: 0}
  m_GameObject: {fileID: 0}
  m_Enabled: 1
  m_EditorHideFlags: 0
  m_Script: {fileID: 11500000, guid: 53f81d62d40705a4cb09a41c7ab3938f, type: 3}
  m_Name: "Espadon Bris\xE9"
  m_EditorClassIdentifier: 
  sprite: {fileID: 1351666062100660548, guid: 4406d1c8ea302754a9471d72ddc3b102, type: 3}
  itemName: "Espadon Bris\xE9"
  itemDescription: "Symbole d'une ancienne amiti\xE9, cet ancien espadon poss\xE8de
    en lui le pouvoir de ma\xEEtriser une temp\xEAte."
  weaponUpgrade:
    attack: -1
    speed: 1
    range: 0
    knockback: 0
    angle: 1
    stuntime: 0
  playerUpgrade:
    speed: 0
    health: 1
    dashDistance: 1
