%YAML 1.1
%TAG !u! tag:unity3d.com,2011:
--- !u!114 &11400000
MonoBehaviour:
  m_ObjectHideFlags: 0
  m_CorrespondingSourceObject: {fileID: 0}
  m_PrefabInstance: {fileID: 0}
  m_PrefabAsset: {fileID: 0}
  m_GameObject: {fileID: 0}
  m_Enabled: 1
  m_EditorHideFlags: 0
  m_Script: {fileID: 11500000, guid: 53f81d62d40705a4cb09a41c7ab3938f, type: 3}
  m_Name: "Pendentif Ail\xE9"
  m_EditorClassIdentifier: 
  sprite: {fileID: -3200850943440068997, guid: 4406d1c8ea302754a9471d72ddc3b102, type: 3}
  itemName: "Pendentif Ail\xE9"
  itemDescription: "Ce pendentif aux ailes scintillantes donne \xE0 son porteur une
    agilit\xE9 incroyable. Vous vous sentez si l\xE9ger en le portant !"
  weaponUpgrade:
    attack: 0
    speed: 0
    range: 0
    knockback: -1
    angle: 0
    stuntime: 0
  playerUpgrade:
    speed: 2
    health: 0
    dashDistance: 1
