%YAML 1.1
%TAG !u! tag:unity3d.com,2011:
--- !u!74 &7400000
AnimationClip:
  m_ObjectHideFlags: 0
  m_CorrespondingSourceObject: {fileID: 0}
  m_PrefabInstance: {fileID: 0}
  m_PrefabAsset: {fileID: 0}
  m_Name: ExploseHeart
  serializedVersion: 6
  m_Legacy: 0
  m_Compressed: 0
  m_UseHighQualityCurve: 1
  m_RotationCurves: []
  m_CompressedRotationCurves: []
  m_EulerCurves: []
  m_PositionCurves: []
  m_ScaleCurves: []
  m_FloatCurves: []
  m_PPtrCurves:
  - curve:
    - time: 0
      value: {fileID: 329010398078229008, guid: 92e1bfc72f4adc742a0c6da9e2639b29,
        type: 3}
    - time: 0.083333336
      value: {fileID: 6916147204945484635, guid: 92e1bfc72f4adc742a0c6da9e2639b29,
        type: 3}
    - time: 0.16666667
      value: {fileID: -8425760238645579307, guid: 92e1bfc72f4adc742a0c6da9e2639b29,
        type: 3}
    - time: 0.25
      value: {fileID: 4059985036426945024, guid: 92e1bfc72f4adc742a0c6da9e2639b29,
        type: 3}
    - time: 0.33333334
      value: {fileID: 795353984471703226, guid: 92e1bfc72f4adc742a0c6da9e2639b29,
        type: 3}
    - time: 0.41666666
      value: {fileID: 1568579936056502648, guid: 92e1bfc72f4adc742a0c6da9e2639b29,
        type: 3}
    - time: 0.5
      value: {fileID: 5752827514540853609, guid: 92e1bfc72f4adc742a0c6da9e2639b29,
        type: 3}
    - time: 0.5833333
      value: {fileID: -6907113365112797066, guid: 92e1bfc72f4adc742a0c6da9e2639b29,
        type: 3}
    - time: 0.6666667
      value: {fileID: -3256876250384648622, guid: 92e1bfc72f4adc742a0c6da9e2639b29,
        type: 3}
    - time: 0.75
      value: {fileID: -1773893130273762216, guid: 92e1bfc72f4adc742a0c6da9e2639b29,
        type: 3}
    - time: 0.8333333
      value: {fileID: 6319607437387390368, guid: 92e1bfc72f4adc742a0c6da9e2639b29,
        type: 3}
    - time: 0.9166667
      value: {fileID: 7121959707958327794, guid: 92e1bfc72f4adc742a0c6da9e2639b29,
        type: 3}
    - time: 1
      value: {fileID: -8986058104404962577, guid: 92e1bfc72f4adc742a0c6da9e2639b29,
        type: 3}
    - time: 1.0833334
      value: {fileID: -495012555623755734, guid: 92e1bfc72f4adc742a0c6da9e2639b29,
        type: 3}
    - time: 1.1666666
      value: {fileID: -9169785357279780098, guid: 92e1bfc72f4adc742a0c6da9e2639b29,
        type: 3}
    - time: 1.25
      value: {fileID: -8683015235258348738, guid: 92e1bfc72f4adc742a0c6da9e2639b29,
        type: 3}
    - time: 1.3333334
      value: {fileID: -3595200271171124167, guid: 92e1bfc72f4adc742a0c6da9e2639b29,
        type: 3}
    - time: 1.4166666
      value: {fileID: -817087380937176571, guid: 92e1bfc72f4adc742a0c6da9e2639b29,
        type: 3}
    - time: 1.5
      value: {fileID: 1118805451510564389, guid: 92e1bfc72f4adc742a0c6da9e2639b29,
        type: 3}
    - time: 1.5833334
      value: {fileID: 5620159417020757546, guid: 92e1bfc72f4adc742a0c6da9e2639b29,
        type: 3}
    - time: 1.6666666
      value: {fileID: -4031959527639175420, guid: 92e1bfc72f4adc742a0c6da9e2639b29,
        type: 3}
    - time: 1.75
      value: {fileID: -5609366870269556621, guid: 92e1bfc72f4adc742a0c6da9e2639b29,
        type: 3}
    - time: 1.8333334
      value: {fileID: 431154250544722830, guid: 92e1bfc72f4adc742a0c6da9e2639b29,
        type: 3}
    - time: 1.9166666
      value: {fileID: -1970550071324995268, guid: 92e1bfc72f4adc742a0c6da9e2639b29,
        type: 3}
    - time: 2
      value: {fileID: 4664498401523052496, guid: 92e1bfc72f4adc742a0c6da9e2639b29,
        type: 3}
    - time: 2.0833333
      value: {fileID: -8081148891305609514, guid: 92e1bfc72f4adc742a0c6da9e2639b29,
        type: 3}
    attribute: m_Sprite
    path: 
    classID: 114
    script: {fileID: 11500000, guid: fe87c0e1cc204ed48ad3b37840f39efc, type: 3}
  m_SampleRate: 60
  m_WrapMode: 0
  m_Bounds:
    m_Center: {x: 0, y: 0, z: 0}
    m_Extent: {x: 0, y: 0, z: 0}
  m_ClipBindingConstant:
    genericBindings:
    - serializedVersion: 2
      path: 0
      attribute: 2015549526
      script: {fileID: 11500000, guid: fe87c0e1cc204ed48ad3b37840f39efc, type: 3}
      typeID: 114
      customType: 0
      isPPtrCurve: 1
    pptrCurveMapping:
    - {fileID: 329010398078229008, guid: 92e1bfc72f4adc742a0c6da9e2639b29, type: 3}
    - {fileID: 6916147204945484635, guid: 92e1bfc72f4adc742a0c6da9e2639b29, type: 3}
    - {fileID: -8425760238645579307, guid: 92e1bfc72f4adc742a0c6da9e2639b29, type: 3}
    - {fileID: 4059985036426945024, guid: 92e1bfc72f4adc742a0c6da9e2639b29, type: 3}
    - {fileID: 795353984471703226, guid: 92e1bfc72f4adc742a0c6da9e2639b29, type: 3}
    - {fileID: 1568579936056502648, guid: 92e1bfc72f4adc742a0c6da9e2639b29, type: 3}
    - {fileID: 5752827514540853609, guid: 92e1bfc72f4adc742a0c6da9e2639b29, type: 3}
    - {fileID: -6907113365112797066, guid: 92e1bfc72f4adc742a0c6da9e2639b29, type: 3}
    - {fileID: -3256876250384648622, guid: 92e1bfc72f4adc742a0c6da9e2639b29, type: 3}
    - {fileID: -1773893130273762216, guid: 92e1bfc72f4adc742a0c6da9e2639b29, type: 3}
    - {fileID: 6319607437387390368, guid: 92e1bfc72f4adc742a0c6da9e2639b29, type: 3}
    - {fileID: 7121959707958327794, guid: 92e1bfc72f4adc742a0c6da9e2639b29, type: 3}
    - {fileID: -8986058104404962577, guid: 92e1bfc72f4adc742a0c6da9e2639b29, type: 3}
    - {fileID: -495012555623755734, guid: 92e1bfc72f4adc742a0c6da9e2639b29, type: 3}
    - {fileID: -9169785357279780098, guid: 92e1bfc72f4adc742a0c6da9e2639b29, type: 3}
    - {fileID: -8683015235258348738, guid: 92e1bfc72f4adc742a0c6da9e2639b29, type: 3}
    - {fileID: -3595200271171124167, guid: 92e1bfc72f4adc742a0c6da9e2639b29, type: 3}
    - {fileID: -817087380937176571, guid: 92e1bfc72f4adc742a0c6da9e2639b29, type: 3}
    - {fileID: 1118805451510564389, guid: 92e1bfc72f4adc742a0c6da9e2639b29, type: 3}
    - {fileID: 5620159417020757546, guid: 92e1bfc72f4adc742a0c6da9e2639b29, type: 3}
    - {fileID: -4031959527639175420, guid: 92e1bfc72f4adc742a0c6da9e2639b29, type: 3}
    - {fileID: -5609366870269556621, guid: 92e1bfc72f4adc742a0c6da9e2639b29, type: 3}
    - {fileID: 431154250544722830, guid: 92e1bfc72f4adc742a0c6da9e2639b29, type: 3}
    - {fileID: -1970550071324995268, guid: 92e1bfc72f4adc742a0c6da9e2639b29, type: 3}
    - {fileID: 4664498401523052496, guid: 92e1bfc72f4adc742a0c6da9e2639b29, type: 3}
    - {fileID: -8081148891305609514, guid: 92e1bfc72f4adc742a0c6da9e2639b29, type: 3}
  m_AnimationClipSettings:
    serializedVersion: 2
    m_AdditiveReferencePoseClip: {fileID: 0}
    m_AdditiveReferencePoseTime: 0
    m_StartTime: 0
    m_StopTime: 2.1
    m_OrientationOffsetY: 0
    m_Level: 0
    m_CycleOffset: 0
    m_HasAdditiveReferencePose: 0
    m_LoopTime: 0
    m_LoopBlend: 0
    m_LoopBlendOrientation: 0
    m_LoopBlendPositionY: 0
    m_LoopBlendPositionXZ: 0
    m_KeepOriginalOrientation: 0
    m_KeepOriginalPositionY: 1
    m_KeepOriginalPositionXZ: 0
    m_HeightFromFeet: 0
    m_Mirror: 0
  m_EditorCurves: []
  m_EulerEditorCurves: []
  m_HasGenericRootTransform: 0
  m_HasMotionFloatCurves: 0
  m_Events: []
